{
    "KPlugin": {
        "Authors": [
            {
                "Email": "tokoe@kde.org",
                "Name": "Tobias Koenig",
                "Name[az]": "Tobias Koenig",
                "Name[ca@valencia]": "Tobias Koenig",
                "Name[ca]": "Tobias Koenig",
                "Name[cs]": "Tobias Koenig",
                "Name[da]": "Tobias Koenig",
                "Name[de]": "Tobias Koenig",
                "Name[el]": "Tobias Koenig",
                "Name[en_GB]": "Tobias Koenig",
                "Name[es]": "Tobias Koenig",
                "Name[et]": "Tobias Koenig",
                "Name[eu]": "Tobias Koenig",
                "Name[fi]": "Tobias Koenig",
                "Name[fr]": "Tobias Koenig",
                "Name[gl]": "Tobias Koenig",
                "Name[ia]": "Tobias Koenig",
                "Name[it]": "Tobias Koenig",
                "Name[ko]": "Tobias Koenig",
                "Name[lt]": "Tobias Koenig",
                "Name[nl]": "Tobias Koenig",
                "Name[nn]": "Tobias König",
                "Name[pa]": "Tobias Koenig",
                "Name[pl]": "Tobias Koenig",
                "Name[pt]": "Tobias Koenig",
                "Name[pt_BR]": "Tobias Koenig",
                "Name[ru]": "Tobias König",
                "Name[sk]": "Tobias Koenig",
                "Name[sl]": "Tobias Koenig",
                "Name[sr@ijekavian]": "Тобијас Кениг",
                "Name[sr@ijekavianlatin]": "Tobijas Kenig",
                "Name[sr@latin]": "Tobijas Kenig",
                "Name[sr]": "Тобијас Кениг",
                "Name[sv]": "Tobias Koenig",
                "Name[tr]": "Tobias Koenig",
                "Name[uk]": "Tobias Koenig",
                "Name[x-test]": "xxTobias Koenigxx",
                "Name[zh_CN]": "Tobias Koenig",
                "Name[zh_TW]": "Tobias Koenig"
            }
        ],
        "Copyright": "© 2007-2008 Tobias Koenig",
        "Copyright[az]": "© 2007-2008 Tobias Koenig",
        "Copyright[ca@valencia]": "© 2007-2008 Tobias Koenig",
        "Copyright[ca]": "© 2007-2008 Tobias Koenig",
        "Copyright[cs]": "© 2007-2008 Tobias Koenig",
        "Copyright[da]": "© 2007-2008 Tobias Koenig",
        "Copyright[de]": "© 2007-2008 Tobias Koenig",
        "Copyright[el]": "© 2007-2008 Tobias Koenig",
        "Copyright[en_GB]": "© 2007-2008 Tobias Koenig",
        "Copyright[es]": "© 2007-2008 Tobias Koenig",
        "Copyright[et]": "© 2007-2008: Tobias Koenig",
        "Copyright[eu]": "© 2007-2008 Tobias Koenig",
        "Copyright[fi]": "© 2007–2008 Tobias Koenig",
        "Copyright[fr]": "© 2007-2008 Tobias Koenig",
        "Copyright[gl]": "© 2007-2008 Tobias Koenig",
        "Copyright[ia]": "© 2007-2008 Tobias Koenig",
        "Copyright[it]": "© 2007-2008 Tobias Koenig",
        "Copyright[ko]": "© 2007-2008 Tobias Koenig",
        "Copyright[lt]": "© 2007-2008 Tobias Koenig",
        "Copyright[nl]": "© 2007-2008 Tobias Koenig",
        "Copyright[nn]": "© 2007–2008 Tobias König",
        "Copyright[pa]": "© 2007-2008 Tobias Koenig",
        "Copyright[pl]": "© 2007-2008 Tobias Koenig",
        "Copyright[pt]": "© 2007-2008 Tobias Koenig",
        "Copyright[pt_BR]": "© 2007-2008 Tobias Koenig",
        "Copyright[ru]": "© Tobias König, 2007-2008",
        "Copyright[sk]": "© 2007-2008 Tobias Koenig",
        "Copyright[sl]": "© 2007-2008 Tobias Koenig",
        "Copyright[sr@ijekavian]": "© 2007–2008, Тобијас Кениг",
        "Copyright[sr@ijekavianlatin]": "© 2007–2008, Tobijas Kenig",
        "Copyright[sr@latin]": "© 2007–2008, Tobijas Kenig",
        "Copyright[sr]": "© 2007–2008, Тобијас Кениг",
        "Copyright[sv]": "© 2007-2008 Tobias Koenig",
        "Copyright[tr]": "© 2007-2008 Tobias Koenig",
        "Copyright[uk]": "© Tobias Koenig, 2007–2008",
        "Copyright[x-test]": "xx© 2007-2008 Tobias Koenigxx",
        "Copyright[zh_CN]": "© 2007-2008 Tobias Koenig",
        "Copyright[zh_TW]": "© 2007-2008 Tobias Koenig",
        "Description": "A renderer for Plucker eBooks",
        "Description[az]": "Plucker eBooks üçün təsvirləmə",
        "Description[ca@valencia]": "Un renderitzador per a llibres electrònics Plucker",
        "Description[ca]": "Un renderitzador per a llibres electrònics Plucker",
        "Description[cs]": "Renderer elektronických knih Plucker",
        "Description[da]": "En gengiver til Plucker-e-bøger",
        "Description[de]": "Ein Renderer für Plucker eBooks",
        "Description[el]": "Πρόγραμμα αποτύπωσης για Plucker eBooks",
        "Description[en_GB]": "A renderer for Plucker eBooks",
        "Description[es]": "Un visor de libros electrónicos Plucker",
        "Description[et]": "Pluckeri e-raamatute renderdaja",
        "Description[eu]": "Plucker eLiburuentzako errendatzaile bat",
        "Description[fi]": "Plucker-e-kirjojen hahmonnin",
        "Description[fr]": "Système de rendu pour les livres électroniques Plucker",
        "Description[gl]": "Un visor de libros electrónicos Plucker",
        "Description[ia]": "Un rendition pro eBooks (Libros electronic) de Plucker",
        "Description[it]": "Un visualizzatore per eBook Plucker",
        "Description[ko]": "Plucker 전자책 렌더러",
        "Description[lt]": "Plucker elektroninių knygų atvaizdavimas",
        "Description[nl]": "Een viewer voor Plucker eBooks",
        "Description[nn]": "Ein gjengjevar for Plucker-e-bøker",
        "Description[pl]": "Wyświetlanie e-booków Plucker",
        "Description[pt]": "Um visualizador de eBooks do Plucker",
        "Description[pt_BR]": "Um interpretador de eBooks Plucker",
        "Description[ru]": "Модуль поддержки формата электронных книг Plucker",
        "Description[sk]": "Vykresľovanie e-kníh Plucker",
        "Description[sl]": "Izrisovalnik za e-knjige Plucker",
        "Description[sr@ijekavian]": "Рендерер за Плакерове е‑књиге",
        "Description[sr@ijekavianlatin]": "Renderer za Pluckerove e‑knjige",
        "Description[sr@latin]": "Renderer za Pluckerove e‑knjige",
        "Description[sr]": "Рендерер за Плакерове е‑књиге",
        "Description[sv]": "Ett återgivningsprogram för Plucker e-böcker",
        "Description[tr]": "Plucker e-kitapları için bir oluşturucu",
        "Description[uk]": "Програма для відображення ел. книг Plucker",
        "Description[x-test]": "xxA renderer for Plucker eBooksxx",
        "Description[zh_CN]": "Plucker 电子书渲染器",
        "Description[zh_TW]": "Plucker 電子書成像器",
        "Id": "okular_plucker",
        "License": "GPL",
        "MimeTypes": [
            "application/prs.plucker"
        ],
        "Name": "Plucker Document Backend",
        "Name[az]": "Plucker sənədi modulu",
        "Name[ca@valencia]": "Dorsal per a documents Plucker",
        "Name[ca]": "Dorsal per a documents Plucker",
        "Name[cs]": "Podpůrná vrstva Plucker Dokumentu",
        "Name[da]": "Plucker-dokument-backend",
        "Name[de]": "Anzeigemodul für Plucker-Dokumente",
        "Name[el]": "Σύστημα υποστήριξης εγγράφων Plucker",
        "Name[en_GB]": "Plucker Document Backend",
        "Name[es]": "Motor para documento de Plucker",
        "Name[et]": "Pluckeri dokumendi taustaprogramm",
        "Name[eu]": "Plucker dokumentuen bizkarraldekoa",
        "Name[fi]": "Plucker-tiedostotaustaosa",
        "Name[fr]": "Moteur de document Plucker",
        "Name[gl]": "Infraestrutura para documentos Plucker",
        "Name[ia]": "Un retro-administration de documento Plucker",
        "Name[it]": "Backend per documenti Plucker",
        "Name[ko]": "Plucker 문서 백엔드",
        "Name[lt]": "Plucker dokumentų programinė sąsaja",
        "Name[nl]": "Plucker Document-backend",
        "Name[nn]": "Plucker-dokumentmotor",
        "Name[pl]": "Obsługa Plucker",
        "Name[pt]": "Infra-Estrutura de Documentos do Plucker",
        "Name[pt_BR]": "Infraestrutura de documentos Plucker",
        "Name[ru]": "Модуль поддержки формата Plucker",
        "Name[sk]": "Backend dokumentov Plucker",
        "Name[sl]": "Zaledje za dokumente Plucker",
        "Name[sr@ijekavian]": "Позадина за Плакерови документе",
        "Name[sr@ijekavianlatin]": "Pozadina za Pluckerovi dokumente",
        "Name[sr@latin]": "Pozadina za Pluckerovi dokumente",
        "Name[sr]": "Позадина за Плакерови документе",
        "Name[sv]": "Plucker-dokumentgränssnitt",
        "Name[tr]": "Plucker Belgesi Arka Ucu",
        "Name[uk]": "Модуль документів Plucker",
        "Name[x-test]": "xxPlucker Document Backendxx",
        "Name[zh_CN]": "Plucker 文档后端",
        "Name[zh_TW]": "Pluker 文件後端介面",
        "Version": "0.1.1"
    },
    "X-KDE-Priority": 1,
    "X-KDE-okularAPIVersion": 1,
    "X-KDE-okularHasInternalSettings": false
}
