{
    "KPlugin": {
        "Authors": [
            {
                "Email": "elylevy@cs.huji.ac.il",
                "Name": "Ely Levy",
                "Name[az]": "Ely Levy",
                "Name[ca@valencia]": "Ely Levy",
                "Name[ca]": "Ely Levy",
                "Name[cs]": "Ely Levy",
                "Name[da]": "Ely Levy",
                "Name[de]": "Ely Levy",
                "Name[el]": "Ely Levy",
                "Name[en_GB]": "Ely Levy",
                "Name[es]": "Ely Levy",
                "Name[et]": "Ely Levy",
                "Name[eu]": "Ely Levy",
                "Name[fi]": "Ely Levy",
                "Name[fr]": "Ely Levy",
                "Name[gl]": "Ely Levy",
                "Name[ia]": "Ely Levy",
                "Name[it]": "Ely Levy",
                "Name[ko]": "Ely Levy",
                "Name[lt]": "Ely Levy",
                "Name[nl]": "Ely Levy",
                "Name[nn]": "Ely Levy",
                "Name[pl]": "Ely Levy",
                "Name[pt]": "Ely Levy",
                "Name[pt_BR]": "Ely Levy",
                "Name[ru]": "Ely Levy",
                "Name[sk]": "Ely Levy",
                "Name[sl]": "Ely Levy",
                "Name[sr@ijekavian]": "Ели Леви",
                "Name[sr@ijekavianlatin]": "Eli Levi",
                "Name[sr@latin]": "Eli Levi",
                "Name[sr]": "Ели Леви",
                "Name[sv]": "Ely Levy",
                "Name[tr]": "Ely Levy",
                "Name[uk]": "Ely Levy",
                "Name[x-test]": "xxEly Levyxx",
                "Name[zh_CN]": "Ely Levy",
                "Name[zh_TW]": "Ely Levy"
            }
        ],
        "Copyright": "© 2008 Ely Levy",
        "Copyright[az]": "© 2008 Ely Levy",
        "Copyright[ca@valencia]": "© 2008 Ely Levy",
        "Copyright[ca]": "© 2008 Ely Levy",
        "Copyright[cs]": "© 2008 Ely Levy",
        "Copyright[da]": "© 2008 Ely Levy",
        "Copyright[de]": "© 2008 Ely Levy",
        "Copyright[el]": "© 2008 Ely Levy",
        "Copyright[en_GB]": "© 2008 Ely Levy",
        "Copyright[es]": "© 2008 Ely Levy",
        "Copyright[et]": "© 2008: Ely Levy",
        "Copyright[eu]": "© 2008 Ely Levy",
        "Copyright[fi]": "© 2008 Ely Levy",
        "Copyright[fr]": "© 2008 Ely Levy",
        "Copyright[gl]": "© 2008 Ely Levy",
        "Copyright[ia]": "© 2008 Ely Levy",
        "Copyright[it]": "© 2008 Ely Levy",
        "Copyright[ko]": "© 2008 Ely Levy",
        "Copyright[lt]": "© 2008 Ely Levy",
        "Copyright[nl]": "© 2008 Ely Levy",
        "Copyright[nn]": "© 2008 Ely Levy",
        "Copyright[pl]": "© 2008 Ely Levy",
        "Copyright[pt]": "© 2008 Ely Levy",
        "Copyright[pt_BR]": "© 2008 Ely Levy",
        "Copyright[ru]": "© Ely Levy, 2008",
        "Copyright[sk]": "© 2008 Ely Levy",
        "Copyright[sl]": "© 2008 Ely Levy",
        "Copyright[sr@ijekavian]": "© 2008, Ели Леви",
        "Copyright[sr@ijekavianlatin]": "© 2008, Eli Levi",
        "Copyright[sr@latin]": "© 2008, Eli Levi",
        "Copyright[sr]": "© 2008, Ели Леви",
        "Copyright[sv]": "© 2008 Ely Levy",
        "Copyright[tr]": "© 2008 Ely Levy",
        "Copyright[uk]": "© Ely Levy, 2008",
        "Copyright[x-test]": "xx© 2008 Ely Levyxx",
        "Copyright[zh_CN]": "© 2008 Ely Levy",
        "Copyright[zh_TW]": "© 2008 Ely Levy",
        "Description": "An EPub backend",
        "Description[az]": "EPub modulu",
        "Description[ca@valencia]": "Un dorsal per a l'EPub",
        "Description[ca]": "Un dorsal per a l'EPub",
        "Description[cs]": "Podpůrná vrstva EPub",
        "Description[da]": "En EPub-backend",
        "Description[de]": "Ein Anzeigemodul für EPUB",
        "Description[el]": "Σύστημα υποστήριξης EPub",
        "Description[en_GB]": "An EPub backend",
        "Description[es]": "Un motor para EPub",
        "Description[et]": "EPubi taustaprogramm",
        "Description[eu]": "EPub-en bizkarraldeko bat",
        "Description[fi]": "EPub-taustaosa",
        "Description[fr]": "Un moteur EPub",
        "Description[gl]": "Unha infraestrutura para EPub",
        "Description[ia]": "Un retro-administration de EPub",
        "Description[it]": "Backend EPub",
        "Description[ko]": "EPub 백엔드",
        "Description[lt]": "EPub programinė sąsaja",
        "Description[nl]": "Een EPub-backend",
        "Description[nn]": "Ein EPUB-motor",
        "Description[pa]": "EPub ਬੈਕਐਂਡ",
        "Description[pl]": "Obsługa formatu EPUB",
        "Description[pt]": "Uma infra-estrutura de EPub",
        "Description[pt_BR]": "Uma infraestrutura para EPub",
        "Description[ru]": "Модуль поддержки формата EPub",
        "Description[sk]": "EPub backend",
        "Description[sl]": "Zaledje za EPub",
        "Description[sr@ijekavian]": "Позадина за ЕПУБ",
        "Description[sr@ijekavianlatin]": "Pozadina za EPUB",
        "Description[sr@latin]": "Pozadina za EPUB",
        "Description[sr]": "Позадина за ЕПУБ",
        "Description[sv]": "Ett Epub-gränssnitt",
        "Description[tr]": "Bir EPub arka ucu",
        "Description[uk]": "Сервер EPub",
        "Description[x-test]": "xxAn EPub backendxx",
        "Description[zh_CN]": "EPub 后端",
        "Description[zh_TW]": "EPub 後端介面",
        "Id": "okular_epub",
        "License": "GPL",
        "MimeTypes": [
            "application/epub+zip"
        ],
        "Name": "EPub Backend",
        "Name[az]": "EPub modulu",
        "Name[ca@valencia]": "Dorsal EPub",
        "Name[ca]": "Dorsal EPub",
        "Name[cs]": "Podpůrná vrstva EPub",
        "Name[da]": "EPub-backend",
        "Name[de]": "Anzeigemodul für EPUB",
        "Name[el]": "Σύστημα υποστήριξης EPub",
        "Name[en_GB]": "EPub Backend",
        "Name[es]": "Motor para EPub",
        "Name[et]": "EPubi taustaprogramm",
        "Name[eu]": "EPub-en bizkarraldekoa",
        "Name[fi]": "EPub-taustaosa",
        "Name[fr]": "Moteur EPub",
        "Name[gl]": "Infraestrutura de EPub",
        "Name[ia]": "Retro-Administration de EPub",
        "Name[it]": "Backend EPub",
        "Name[ko]": "EPub 백엔드",
        "Name[lt]": "EPub programinė sąsaja",
        "Name[nl]": "EPub-backend",
        "Name[nn]": "EPUB-motor",
        "Name[pa]": "EPub ਬੈਕਐਂਡ",
        "Name[pl]": "Obsługa EPUB",
        "Name[pt]": "Infra-Estrutura de EPub",
        "Name[pt_BR]": "Infraestrutura EPub",
        "Name[ru]": "Модуль поддержки формата EPub",
        "Name[sk]": "EPub Backend",
        "Name[sl]": "Zaledje za EPub",
        "Name[sr@ijekavian]": "Позадина за ЕПУБ",
        "Name[sr@ijekavianlatin]": "Pozadina za EPUB",
        "Name[sr@latin]": "Pozadina za EPUB",
        "Name[sr]": "Позадина за ЕПУБ",
        "Name[sv]": "Epub-gränssnitt",
        "Name[tr]": "EPub Arka Ucu",
        "Name[uk]": "Модуль EPub",
        "Name[x-test]": "xxEPub Backendxx",
        "Name[zh_CN]": "EPub 后端",
        "Name[zh_TW]": "EPub 後端介面",
        "Version": "0.2.3"
    },
    "X-KDE-Priority": 1,
    "X-KDE-okularAPIVersion": 1,
    "X-KDE-okularHasInternalSettings": true
}
